…
# create the words freq table
word.freq.table<- reviews.text %>% 
  unnest_tokens(word, reviews.text) %>%
  anti_join(stop_words) %>%
  anti_join(ignore.words) %>%
  count(word, sort = TRUE)

word.freq.table
```

```
## # A tibble: 6,732 × 2
##    word       n
##    <chr>  <int>
##  1 tablet  5796
##  2 price   2554
##  3 bought  2259
##  4 easy    1758
##  5 love    1724
##  6 kids    1454
##  7 fire    1388
##  8 kindle  1352
##  9 games   1264
## 10 loves   1113
## # … with 6,722 more rows
```
…
correlation.terms
```

```
## # A tibble: 2,946,372 × 3
##    item1    item2    correlation
##    <chr>    <chr>          <dbl>
##  1 whistles bells          1    
##  2 bells    whistles       1    
##  3 fi       wi             0.987
##  4 wi       fi             0.987
##  5 friday   black          0.950
##  6 black    friday         0.950
##  7 rom      custom         0.894
##  8 custom   rom            0.894
##  9 bones    bare           0.894
## 10 bare     bones          0.894
## # … with 2,946,362 more rows
```
…
